^C:\USERS\THOMAS.LOMBARD\DOCUMENTS\ANNEE 7 TRAVAIL THOMAS\COURS\PROG GAMEPLAY 2\TP 1\MEDIEVAL-BATTLE-SIMULATOR-CPP\MEDIEVALBATTLESIMULATOR\MEDIEVALBATTLESIMULATOR.CPP
C:\USERS\THOMAS.LOMBARD\DOCUMENTS\ANNEE 7 TRAVAIL THOMAS\COURS\PROG GAMEPLAY 2\TP 1\MEDIEVAL-BATTLE-SIMULATOR-CPP\MEDIEVALBATTLESIMULATOR\X64\DEBUG\VC143.PDB
C:\USERS\THOMAS.LOMBARD\DOCUMENTS\ANNEE 7 TRAVAIL THOMAS\COURS\PROG GAMEPLAY 2\TP 1\MEDIEVAL-BATTLE-SIMULATOR-CPP\MEDIEVALBATTLESIMULATOR\X64\DEBUG\VC143.IDB
C:\USERS\THOMAS.LOMBARD\DOCUMENTS\ANNEE 7 TRAVAIL THOMAS\COURS\PROG GAMEPLAY 2\TP 1\MEDIEVAL-BATTLE-SIMULATOR-CPP\MEDIEVALBATTLESIMULATOR\X64\DEBUG\MEDIEVALBATTLESIMULATOR.OBJ
